%YAML 1.1
%TAG !u! tag:unity3d.com,2011:
--- !u!114 &11400000
MonoBehaviour:
  m_ObjectHideFlags: 0
  m_CorrespondingSourceObject: {fileID: 0}
  m_PrefabInstance: {fileID: 0}
  m_PrefabAsset: {fileID: 0}
  m_GameObject: {fileID: 0}
  m_Enabled: 1
  m_EditorHideFlags: 0
  m_Script: {fileID: 11500000, guid: 092a03b58f0d4ce9b1eadde24a8cf533, type: 3}
  m_Name: Sector1
  m_EditorClassIdentifier: 
  m_SectorPlan: {fileID: 21300000, guid: 854099435fc92bd499bb79991d2cf782, type: 3}
  m_MaskPlan: {fileID: 21300000, guid: 1f34121aa3eb8a248ba676bb991ae29b, type: 3}
  m_ID: 0
  m_MinRating: 2
  m_MinProduction: 1
  m_ProfitPerSec: 50
  m_ProblemPoints:
  - {x: -218, y: 172}
  - {x: 175, y: 66}
  - {x: -162, y: -304}
  - {x: 275, y: -240}
  - {x: 225, y: 292}
