%YAML 1.1
%TAG !u! tag:unity3d.com,2011:
--- !u!114 &11400000
MonoBehaviour:
  m_ObjectHideFlags: 0
  m_CorrespondingSourceObject: {fileID: 0}
  m_PrefabInstance: {fileID: 0}
  m_PrefabAsset: {fileID: 0}
  m_GameObject: {fileID: 0}
  m_Enabled: 1
  m_EditorHideFlags: 0
  m_Script: {fileID: 11500000, guid: d28d6ed3d7e932b47990d33f0a4c833b, type: 3}
  m_Name: Plant5
  m_EditorClassIdentifier: 
  m_Icon: {fileID: 21300000, guid: 1d52517e5844e7245b0d89a4beae90fa, type: 3}
  m_ComponentName: Plant Complex
  m_ID: 5
  m_Price: 1000000
  m_ProductionPerSec: 20000
  m_CostPerSec: 8192
